<?xml version="1.0" encoding="UTF-8" standalone="no"?>
<!DOCTYPE svg PUBLIC "-//W3C//DTD SVG 1.1//EN" "http://www.w3.org/Graphics/SVG/1.1/DTD/svg11.dtd">
<svg width="100%" height="100%" viewBox="0 0 800 800" version="1.1" xmlns="http://www.w3.org/2000/svg" xmlns:xlink="http://www.w3.org/1999/xlink" xml:space="preserve" xmlns:serif="http://www.serif.com/" style="fill-rule:evenodd;clip-rule:evenodd;stroke-linejoin:round;stroke-miterlimit:2;">
    <g transform="matrix(1,0,0,1,-1008,0)">
        <g id="Artboard2" transform="matrix(1,0,0,1,-0.333333,0)">
            <rect x="1008.33" y="0" width="800" height="800" style="fill:none;"/>
            <g transform="matrix(0.754987,0.754987,-0.707107,0.707107,1230.32,-40.9494)">
                <rect x="78.056" y="151.646" width="663.719" height="68.558"/>
            </g>
            <g transform="matrix(0.754987,-0.754987,0.707107,0.707107,967.384,578.012)">
                <rect x="78.056" y="151.646" width="663.719" height="68.558"/>
            </g>
        </g>
    </g>
</svg>
